Código livre - Regressão Linear
…
# tabela analítica
credit_com_predicoes %>% select(Renda = Income, Idade = Age, 
                                Saldo = Balance, predicao = .fitted) %>%
  arrange(desc(predicao))

## # A tibble: 400 x 4
##    Renda Idade Saldo predicao
##    <dbl> <int> <int>    <dbl>
##  1  187.    41  1809    1434.
##  2  181.    58  1405    1360.
##  3  180.    67  1050    1338.
##  4  183.    98  1999    1285.
##  5  163.    50   529    1269.
##  6  152.    41  1779    1220.
##  7  159.    62  1448    1215.
##  8  149.    36   964    1210.
##  9  160.    69  1192    1208.
## 10  141.    46  1677    1136.
## # ... with 390 more rows

Exemplo 3: Pinguins (ANOVA)

library(palmerpenguins)
penguins %>% select(species, flipper_length_mm)

## # A tibble: 344 x 2
##    species flipper_length_mm
##    <fct>               <int>
##  1 Adelie                181
##  2 Adelie                186
##  3 Adelie                195
##  4 Adelie                 NA
##  5 Adelie                193
##  6 Adelie                190
##  7 Adelie                181
##  8 Adelie                195
##  9 Adelie                193
## 10 Adelie                190
## # ... with 334 more rows
…
